[0,"wl",100,1436597974]
[4,2,300,1436602801]
[4,4,300,1436603101]
[4,11,300,1436603401]
[4,2,300,1436611801]
[4,4,300,1436612101]
[4,11,300,1436612401]
[4,2,300,1436620801]
[4,4,300,1436621101]
[4,11,300,1436621401]
[4,2,300,1436629801]
[4,4,300,1436630101]
[4,11,300,1436630401]
[1,6,10800,1436655661]
