[3,0,720,1437630121]
[3,1,720,1437630841]
[0,"wl",100,1437635926]
[4,2,300,1437639601]
[4,4,300,1437639901]
[4,11,300,1437640201]
[4,2,300,1437648601]
[4,4,300,1437648901]
[4,11,300,1437649201]
[4,2,300,1437657601]
[4,4,300,1437657901]
[4,11,300,1437658201]
[4,2,300,1437666601]
[4,4,300,1437666901]
[4,11,300,1437667201]
[1,6,10800,1437692041]
