[2,8,720,1437889321]
[2,9,720,1437890041]
[2,10,720,1437890761]
[0,"wl",100,1437895414]
[4,2,300,1437898801]
[4,4,300,1437899101]
[4,11,300,1437899401]
[4,2,300,1437907801]
[4,4,300,1437908101]
[4,11,300,1437908401]
[4,2,300,1437916801]
[4,4,300,1437917101]
[4,11,300,1437917401]
[4,2,300,1437925801]
[4,4,300,1437926101]
[4,11,300,1437926401]
[1,6,10800,1437951121]
