[0,"wl",100,1439885573]
[4,2,300,1439886001]
[4,4,300,1439886301]
[4,11,300,1439886601]
[4,2,300,1439895001]
[4,4,300,1439895301]
[4,11,300,1439895601]
[4,2,300,1439904001]
[4,4,300,1439904301]
[4,11,300,1439904601]
[4,2,300,1439913001]
[4,4,300,1439913301]
[4,11,300,1439913601]
[1,6,10800,1439938321]
