[4,2,300,1441700401]
[4,4,300,1441700701]
[4,11,300,1441701001]
[0,"wl",100,1441702218]
[4,2,300,1441709401]
[4,4,300,1441709701]
[4,11,300,1441710001]
[4,2,300,1441718401]
[4,4,300,1441718701]
[4,11,300,1441719001]
[4,2,300,1441727401]
[4,4,300,1441727701]
[4,11,300,1441728001]
[1,6,10800,1441752721]
