[4,2,300,1444465201]
[4,4,300,1444465501]
[4,11,300,1444465801]
[0,"wl",100,1444470216]
[4,2,300,1444474201]
[4,4,300,1444474501]
[4,11,300,1444474801]
[4,2,300,1444483201]
[4,4,300,1444483501]
[4,11,300,1444483801]
[4,2,300,1444492201]
[4,4,300,1444492501]
[4,11,300,1444492801]
[1,6,10800,1444517521]
