[3,0,720,1446097321]
[3,1,720,1446098041]
[4,2,300,1446106801]
[4,4,300,1446107101]
[4,11,300,1446107401]
[0,"wl",100,1446113640]
[4,2,300,1446115801]
[4,4,300,1446116101]
[4,11,300,1446116401]
[4,2,300,1446124801]
[4,4,300,1446125101]
[4,11,300,1446125401]
[4,2,300,1446133801]
[4,4,300,1446134101]
[4,11,300,1446134401]
[254,6,29,1446147451]
[254,6,14400,1446161903]
[254,7,14400,1446161903]
