[1,6,21600,1461721981]
[1,7,21600,1461721982]
[0,"wl",100,1461721982]
[0,"wl",100,1461725584]
[0,"wl",100,1461729186]
[0,"wl",100,1461732788]
[0,"wl",100,1461736390]
[0,"wl",100,1461739992]
[2,2,300,1461740701]
[2,4,300,1461741001]
[2,11,300,1461741301]
[0,"wl",100,1461743594]
[0,"wl",100,1461747196]
[2,2,300,1461747901]
[2,4,300,1461748201]
[2,11,300,1461748501]
[0,"wl",100,1461750798]
[0,"wl",100,1461754400]
[2,2,300,1461755101]
[2,4,300,1461755401]
[2,11,300,1461755701]
[0,"wl",100,1461758002]
[0,"wl",100,1461761604]
[2,2,300,1461762301]
[2,4,300,1461762601]
[2,11,300,1461762901]
[0,"wl",100,1461765206]
[0,"wl",100,1461768808]
[2,2,300,1461769501]
[2,4,300,1461769801]
[2,11,300,1461770101]
[0,"wl",100,1461772410]
[0,"wl",100,1461776012]
[0,"wl",100,1461779614]
[0,"wl",100,1461783216]
[0,"wl",100,1461786818]
